E:\MEGA\MEGAsync\Asuntos\trekkinn_bot\src\main\java\com\stcor\ScraperBot\Bots\model\BasicBot.java
E:\MEGA\MEGAsync\Asuntos\trekkinn_bot\src\main\java\com\stcor\ScraperBot\repository\Trekkinn_AvisoHistoricoRepository.java
E:\MEGA\MEGAsync\Asuntos\trekkinn_bot\src\main\java\com\stcor\ScraperBot\Services\BotService.java
E:\MEGA\MEGAsync\Asuntos\trekkinn_bot\src\main\java\com\stcor\ScraperBot\Bots\model\trekkinn\Trekkinn_Aviso.java
E:\MEGA\MEGAsync\Asuntos\trekkinn_bot\src\main\java\com\stcor\ScraperBot\repository\Trekkinn_AvisoRepository.java
E:\MEGA\MEGAsync\Asuntos\trekkinn_bot\src\main\java\com\stcor\ScraperBot\Bots\model\trekkinn\Trekkinn_AvisoHistorico.java
E:\MEGA\MEGAsync\Asuntos\trekkinn_bot\src\main\java\com\stcor\ScraperBot\TrekkinnBotApplication.java
E:\MEGA\MEGAsync\Asuntos\trekkinn_bot\src\main\java\com\stcor\ScraperBot\Bots\model\Observador.java
E:\MEGA\MEGAsync\Asuntos\trekkinn_bot\src\main\java\com\stcor\ScraperBot\Services\Trekkinn_Service.java
